%!PS-Adobe-3.0
%%Creator: graphviz version 2.26.0 (20091210.2329)
%%Title: _anonymous_0
%%Pages: (atend)
%%BoundingBox: (atend)
%%EndComments
save
%%BeginProlog
/DotDict 200 dict def
DotDict begin

/setupLatin1 {
mark
/EncodingVector 256 array def
 EncodingVector 0

ISOLatin1Encoding 0 255 getinterval putinterval
EncodingVector 45 /hyphen put

% Set up ISO Latin 1 character encoding
/starnetISO {
        dup dup findfont dup length dict begin
        { 1 index /FID ne { def }{ pop pop } ifelse
        } forall
        /Encoding EncodingVector def
        currentdict end definefont
} def
/Times-Roman starnetISO def
/Times-Italic starnetISO def
/Times-Bold starnetISO def
/Times-BoldItalic starnetISO def
/Helvetica starnetISO def
/Helvetica-Oblique starnetISO def
/Helvetica-Bold starnetISO def
/Helvetica-BoldOblique starnetISO def
/Courier starnetISO def
/Courier-Oblique starnetISO def
/Courier-Bold starnetISO def
/Courier-BoldOblique starnetISO def
cleartomark
} bind def

%%BeginResource: procset graphviz 0 0
/coord-font-family /Times-Roman def
/default-font-family /Times-Roman def
/coordfont coord-font-family findfont 8 scalefont def

/InvScaleFactor 1.0 def
/set_scale {
       dup 1 exch div /InvScaleFactor exch def
       scale
} bind def

% styles
/solid { [] 0 setdash } bind def
/dashed { [9 InvScaleFactor mul dup ] 0 setdash } bind def
/dotted { [1 InvScaleFactor mul 6 InvScaleFactor mul] 0 setdash } bind def
/invis {/fill {newpath} def /stroke {newpath} def /show {pop newpath} def} bind def
/bold { 2 setlinewidth } bind def
/filled { } bind def
/unfilled { } bind def
/rounded { } bind def
/diagonals { } bind def

% hooks for setting color 
/nodecolor { sethsbcolor } bind def
/edgecolor { sethsbcolor } bind def
/graphcolor { sethsbcolor } bind def
/nopcolor {pop pop pop} bind def

/beginpage {	% i j npages
	/npages exch def
	/j exch def
	/i exch def
	/str 10 string def
	npages 1 gt {
		gsave
			coordfont setfont
			0 0 moveto
			(\() show i str cvs show (,) show j str cvs show (\)) show
		grestore
	} if
} bind def

/set_font {
	findfont exch
	scalefont setfont
} def

% draw text fitted to its expected width
/alignedtext {			% width text
	/text exch def
	/width exch def
	gsave
		width 0 gt {
			[] 0 setdash
			text stringwidth pop width exch sub text length div 0 text ashow
		} if
	grestore
} def

/boxprim {				% xcorner ycorner xsize ysize
		4 2 roll
		moveto
		2 copy
		exch 0 rlineto
		0 exch rlineto
		pop neg 0 rlineto
		closepath
} bind def

/ellipse_path {
	/ry exch def
	/rx exch def
	/y exch def
	/x exch def
	matrix currentmatrix
	newpath
	x y translate
	rx ry scale
	0 0 1 0 360 arc
	setmatrix
} bind def

/endpage { showpage } bind def
/showpage { } def

/layercolorseq
	[	% layer color sequence - darkest to lightest
		[0 0 0]
		[.2 .8 .8]
		[.4 .8 .8]
		[.6 .8 .8]
		[.8 .8 .8]
	]
def

/layerlen layercolorseq length def

/setlayer {/maxlayer exch def /curlayer exch def
	layercolorseq curlayer 1 sub layerlen mod get
	aload pop sethsbcolor
	/nodecolor {nopcolor} def
	/edgecolor {nopcolor} def
	/graphcolor {nopcolor} def
} bind def

/onlayer { curlayer ne {invis} if } def

/onlayers {
	/myupper exch def
	/mylower exch def
	curlayer mylower lt
	curlayer myupper gt
	or
	{invis} if
} def

/curlayer 0 def

%%EndResource
%%EndProlog
%%BeginSetup
14 default-font-family set_font
1 setmiterlimit
% /arrowlength 10 def
% /arrowwidth 5 def

% make sure pdfmark is harmless for PS-interpreters other than Distiller
/pdfmark where {pop} {userdict /pdfmark /cleartomark load put} ifelse
% make '<<' and '>>' safe on PS Level 1 devices
/languagelevel where {pop languagelevel}{1} ifelse
2 lt {
    userdict (<<) cvn ([) cvn load put
    userdict (>>) cvn ([) cvn load put
} if

%%EndSetup
setupLatin1
%%Page: 1 1
%%PageBoundingBox: 36 36 200 378
%%PageOrientation: Portrait
0 0 1 beginpage
gsave
36 36 164 342 boxprim clip newpath
1 1 set_scale 0 rotate 40 41 translate
% 0
gsave
1 setlinewidth
0 0 0 nodecolor
91 315 27 19.09 ellipse_path stroke
0 0 0 nodecolor
14 /Times-Roman set_font
87.5 311.9 moveto 7 (0) alignedtext
grestore
% 1
gsave
1 setlinewidth
0 0 0 nodecolor
83 167 27 19.09 ellipse_path stroke
0 0 0 nodecolor
14 /Times-Roman set_font
79.5 163.9 moveto 7 (1) alignedtext
grestore
% 0->1
gsave
1 setlinewidth
0 0 0 edgecolor
newpath 85.31 296.26 moveto
81.49 271.04 78.78 225.94 79.08 196.24 curveto
stroke
0 0 0 edgecolor
newpath 82.58 196.14 moveto
79.33 186.06 lineto
75.58 195.97 lineto
closepath fill
1 setlinewidth
solid
0 0 0 edgecolor
newpath 82.58 196.14 moveto
79.33 186.06 lineto
75.58 195.97 lineto
closepath stroke
grestore
% 3
gsave
1 setlinewidth
0 0 0 nodecolor
27 241 27 19.09 ellipse_path stroke
0 0 0 nodecolor
14 /Times-Roman set_font
23.5 237.9 moveto 7 (3) alignedtext
grestore
% 0->3
gsave
1 setlinewidth
0 0 0 edgecolor
newpath 76.8 298.58 moveto
68.26 288.71 57.25 275.98 47.75 265 curveto
stroke
0 0 0 edgecolor
newpath 50.35 262.65 moveto
41.16 257.38 lineto
45.06 267.23 lineto
closepath fill
1 setlinewidth
solid
0 0 0 edgecolor
newpath 50.35 262.65 moveto
41.16 257.38 lineto
45.06 267.23 lineto
closepath stroke
grestore
% 4
gsave
1 setlinewidth
0 0 0 nodecolor
129 19 27 19.09 ellipse_path stroke
0 0 0 nodecolor
14 /Times-Roman set_font
125.5 15.9 moveto 7 (4) alignedtext
grestore
% 0->4
gsave
1 setlinewidth
0 0 0 edgecolor
newpath 106.39 299.13 moveto
115.31 288.85 125.78 274.69 131 260 curveto
156.86 187.21 144.38 94.07 135.41 47.78 curveto
stroke
0 0 0 edgecolor
newpath 138.82 46.96 moveto
133.4 37.85 lineto
131.96 48.35 lineto
closepath fill
1 setlinewidth
solid
0 0 0 edgecolor
newpath 138.82 46.96 moveto
133.4 37.85 lineto
131.96 48.35 lineto
closepath stroke
grestore
% 1->0
gsave
1 setlinewidth
0 0 0 edgecolor
newpath 88.72 185.97 moveto
92.52 211.24 95.22 256.2 94.92 285.81 curveto
stroke
0 0 0 edgecolor
newpath 91.42 285.87 moveto
94.67 295.95 lineto
98.42 286.04 lineto
closepath fill
1 setlinewidth
solid
0 0 0 edgecolor
newpath 91.42 285.87 moveto
94.67 295.95 lineto
98.42 286.04 lineto
closepath stroke
grestore
% 2
gsave
1 setlinewidth
0 0 0 nodecolor
83 93 27 19.09 ellipse_path stroke
0 0 0 nodecolor
14 /Times-Roman set_font
79.5 89.9 moveto 7 (2) alignedtext
grestore
% 1->2
gsave
1 setlinewidth
0 0 0 edgecolor
newpath 77.05 148.33 moveto
76.28 140.26 76.07 130.65 76.4 121.71 curveto
stroke
0 0 0 edgecolor
newpath 79.9 121.87 moveto
77.05 111.67 lineto
72.91 121.42 lineto
closepath fill
1 setlinewidth
solid
0 0 0 edgecolor
newpath 79.9 121.87 moveto
77.05 111.67 lineto
72.91 121.42 lineto
closepath stroke
grestore
% 3->1
gsave
1 setlinewidth
0 0 0 edgecolor
newpath 39.71 224.21 moveto
46.89 214.72 56 202.67 64.02 192.08 curveto
stroke
0 0 0 edgecolor
newpath 66.91 194.07 moveto
70.15 183.98 lineto
61.32 189.84 lineto
closepath fill
1 setlinewidth
solid
0 0 0 edgecolor
newpath 66.91 194.07 moveto
70.15 183.98 lineto
61.32 189.84 lineto
closepath stroke
grestore
% 3->2
gsave
1 setlinewidth
0 0 0 edgecolor
newpath 29.03 221.86 moveto
31.55 202.61 36.81 172.38 47 148 curveto
51.29 137.73 57.53 127.31 63.62 118.34 curveto
stroke
0 0 0 edgecolor
newpath 66.66 120.09 moveto
69.58 109.91 lineto
60.95 116.05 lineto
closepath fill
1 setlinewidth
solid
0 0 0 edgecolor
newpath 66.66 120.09 moveto
69.58 109.91 lineto
60.95 116.05 lineto
closepath stroke
grestore
% 2->0
gsave
1 setlinewidth
0 0 0 edgecolor
newpath 97.5 109.52 moveto
105.54 119.82 114.76 133.78 119 148 curveto
133.27 195.87 116.26 253.77 103.21 287.29 curveto
stroke
0 0 0 edgecolor
newpath 99.84 286.29 moveto
99.32 296.87 lineto
106.33 288.92 lineto
closepath fill
1 setlinewidth
solid
0 0 0 edgecolor
newpath 99.84 286.29 moveto
99.32 296.87 lineto
106.33 288.92 lineto
closepath stroke
grestore
% 2->1
gsave
1 setlinewidth
0 0 0 edgecolor
newpath 88.95 111.67 moveto
89.72 119.73 89.93 129.35 89.6 138.28 curveto
stroke
0 0 0 edgecolor
newpath 86.1 138.12 moveto
88.95 148.33 lineto
93.09 138.57 lineto
closepath fill
1 setlinewidth
solid
0 0 0 edgecolor
newpath 86.1 138.12 moveto
88.95 148.33 lineto
93.09 138.57 lineto
closepath stroke
grestore
% 2->4
gsave
1 setlinewidth
0 0 0 edgecolor
newpath 93.9 75.46 moveto
99.52 66.43 106.47 55.24 112.71 45.2 curveto
stroke
0 0 0 edgecolor
newpath 115.87 46.75 moveto
118.18 36.41 lineto
109.93 43.06 lineto
closepath fill
1 setlinewidth
solid
0 0 0 edgecolor
newpath 115.87 46.75 moveto
118.18 36.41 lineto
109.93 43.06 lineto
closepath stroke
grestore
endpage
showpage
grestore
%%PageTrailer
%%EndPage: 1
%%Trailer
%%Pages: 1
%%BoundingBox: 36 36 200 378
end
restore
%%EOF
